{   "succ":true,
    "total": 50,
    "pageSize": 5,
    "pageCount": 2,
    "currentPage": 1,
    "records": [
        {
			"agentAreaCity":"Pla20150416ABC220004",
			"agentAreaCityName":"E保众筹交通工具综合保险A计划",
			"truename":"E保APP",
			"agentAreaCounty":"2015-04-16 20：10:00",
			"agentId":"113456",
			"orderAccount":"19.99",
			"opt":"待支付",
			"agentAreaCountyName": "露露"	
        },
		{
			"agentAreaCity":"Pla20150416ABC220004",
			"agentAreaCityName":"E保众筹交通工具综合保险A计划",
			"truename":"E保APP",
			"agentAreaCounty":"2015-04-16 20：10:00",
			"agentId":"113456",
			"orderAccount":"19.99",
			"opt":"已支付",
			"agentAreaCountyName": "张三"	
        },{
			"agentAreaCity":"Pla20150416ABC220004",
			"agentAreaCityName":"E保众筹交通工具综合保险A计划",
			"truename":"E保APP",
			"agentAreaCounty":"2015-04-16 20：10:00",
			"agentId":"113456",
			"orderAccount":"19.99",
			"opt":"已关闭",
			"agentAreaCountyName": "李四"
        },{
			"agentAreaCity":"Pla20150416ABC220004",
			"agentAreaCityName":"E保众筹交通工具综合保险A计划",
			"truename":"E保APP",
			"agentAreaCounty":"2015-04-16 20：10:00",
			"agentId":"113456",
			"orderAccount":"19.99",
			"opt":"已退货",
			"agentAreaCountyName": "紫菱"	
        },{
			"agentAreaCity":"Pla20150416ABC220004",
			"agentAreaCityName":"E保众筹交通工具综合保险A计划",
			"truename":"E保APP",
			"agentAreaCounty":"2015-04-16 20：10:00",
			"agentId":"113456",
			"orderAccount":"19.99",
			"opt":"已失效",
			"agentAreaCountyName": "周老四"	
        },{
			"agentAreaCity":"Pla20150416ABC220004",
			"agentAreaCityName":"E保众筹交通工具综合保险A计划",
			"truename":"E保APP",
			"agentAreaCounty":"2015-04-16 20：10:00",
			"agentId":"113456",
			"orderAccount":"19.99",
			"opt":"已支付",
			"agentAreaCountyName": "泸州"	
        },{
			"agentAreaCity":"Pla20150416ABC220004",
			"agentAreaCityName":"E保众筹交通工具综合保险A计划",
			"truename":"E保APP",
			"agentAreaCounty":"2015-04-16 20：10:00",
			"agentId":"113456",
			"orderAccount":"19.99",
			"opt":"待支付",
			"agentAreaCountyName": "黄龙"	
        },{
			"agentAreaCity":"Pla20150416ABC220004",
			"agentAreaCityName":"E保众筹交通工具综合保险A计划",
			"truename":"E保APP",
			"agentAreaCounty":"2015-04-16 20：10:00",
			"agentId":"113456",
			"orderAccount":"19.99",
			"opt":"已支付",
			"agentAreaCountyName": "紫薇"	
        },{
			"agentAreaCity":"Pla20150416ABC220004",
			"agentAreaCityName":"E保众筹交通工具综合保险A计划",
			"truename":"E保APP",
			"agentAreaCounty":"2015-04-16 20：10:00",
			"agentId":"113456",
			"orderAccount":"19.99",
			"opt":"已关闭",
			"agentAreaCountyName": "空地"	
        },{
			"agentAreaCity":"Pla20150416ABC220004",
			"agentAreaCityName":"E保众筹交通工具综合保险A计划",
			"truename":"E保APP",
			"agentAreaCounty":"2015-04-16 20：10:00",
			"agentId":"113456",
			"orderAccount":"19.99",
			"opt":"已退货",
			"agentAreaCountyName": "龙少"	
        }
        
    ]
}